EESchema Schematic File Version 2
LIBS:power
LIBS:device
LIBS:transistors
LIBS:conn
LIBS:linear
LIBS:regul
LIBS:74xx
LIBS:cmos4000
LIBS:adc-dac
LIBS:memory
LIBS:xilinx
LIBS:microcontrollers
LIBS:dsp
LIBS:microchip
LIBS:analog_switches
LIBS:motorola
LIBS:texas
LIBS:intel
LIBS:audio
LIBS:interface
LIBS:digital-audio
LIBS:philips
LIBS:display
LIBS:cypress
LIBS:siliconi
LIBS:opto
LIBS:atmel
LIBS:contrib
LIBS:valves
LIBS:74xgxx
LIBS:ac-dc
LIBS:actel
LIBS:allegro
LIBS:Altera
LIBS:analog_devices
LIBS:battery_management
LIBS:bbd
LIBS:bosch
LIBS:brooktre
LIBS:cmos_ieee
LIBS:dc-dc
LIBS:diode
LIBS:elec-unifil
LIBS:ESD_Protection
LIBS:ftdi
LIBS:gennum
LIBS:graphic
LIBS:hc11
LIBS:ir
LIBS:Lattice
LIBS:leds
LIBS:logo
LIBS:maxim
LIBS:mechanical
LIBS:microchip_dspic33dsc
LIBS:microchip_pic10mcu
LIBS:microchip_pic12mcu
LIBS:microchip_pic16mcu
LIBS:microchip_pic18mcu
LIBS:microchip_pic24mcu
LIBS:microchip_pic32mcu
LIBS:modules
LIBS:motor_drivers
LIBS:motors
LIBS:msp430
LIBS:nordicsemi
LIBS:nxp
LIBS:nxp_armmcu
LIBS:onsemi
LIBS:Oscillators
LIBS:Power_Management
LIBS:powerint
LIBS:pspice
LIBS:references
LIBS:relays
LIBS:rfcom
LIBS:sensors
LIBS:silabs
LIBS:SparkFun-Connectors
LIBS:stm8
LIBS:stm32
LIBS:supertex
LIBS:switches
LIBS:transf
LIBS:triac_thyristor
LIBS:ttl_ieee
LIBS:video
LIBS:wiznet
LIBS:Worldsemi
LIBS:Xicor
LIBS:zetex
LIBS:Zilog
LIBS:mpu6050
LIBS:FYP 14-10-cache
EELAYER 25 0
EELAYER END
$Descr A4 11693 8268
encoding utf-8
Sheet 1 1
Title ""
Date ""
Rev ""
Comp ""
Comment1 ""
Comment2 ""
Comment3 ""
Comment4 ""
$EndDescr
$Comp
L CONN_01X03 J1
U 1 1 5A510827
P 1950 1700
F 0 "J1" H 1950 1900 50  0000 C CNN
F 1 "SERVO 1" V 2050 1700 28  0000 C CNN
F 2 "Pin_Headers:Pin_Header_Straight_1x03_Pitch2.00mm" H 1950 1700 50  0001 C CNN
F 3 "" H 1950 1700 50  0001 C CNN
	1    1950 1700
	-1   0    0    -1  
$EndComp
$Comp
L CONN_01X03 J2
U 1 1 5A510960
P 1950 2300
F 0 "J2" H 1950 2500 50  0000 C CNN
F 1 "SERVO 2" V 2050 2300 28  0000 C CNN
F 2 "Pin_Headers:Pin_Header_Straight_1x03_Pitch2.00mm" H 1950 2300 50  0001 C CNN
F 3 "" H 1950 2300 50  0001 C CNN
	1    1950 2300
	-1   0    0    -1  
$EndComp
$Comp
L CONN_01X03 J3
U 1 1 5A5109BD
P 1950 2850
F 0 "J3" H 1950 3050 50  0000 C CNN
F 1 "SERVO 3" V 2050 2850 28  0000 C CNN
F 2 "Pin_Headers:Pin_Header_Straight_1x03_Pitch2.00mm" H 1950 2850 50  0001 C CNN
F 3 "" H 1950 2850 50  0001 C CNN
	1    1950 2850
	-1   0    0    -1  
$EndComp
Wire Wire Line
	2150 1600 2300 1600
Wire Wire Line
	2300 2750 2150 2750
Wire Wire Line
	2150 2200 2300 2200
Wire Wire Line
	2400 2950 2150 2950
Wire Wire Line
	2400 1800 2150 1800
Wire Wire Line
	2150 2850 2500 2850
Wire Wire Line
	2150 2300 2500 2300
Wire Wire Line
	2150 1700 2450 1700
Text Label 2450 1700 0    28   ~ 0
6V
Text Label 2500 2300 0    28   ~ 0
6V
Text Label 2500 2850 0    28   ~ 0
6V
$Comp
L CONN_01X02 J4
U 1 1 5A51176B
P 1950 3600
F 0 "J4" H 1950 3750 50  0000 C CNN
F 1 "BAT" V 2050 3600 28  0000 C CNN
F 2 "Pin_Headers:Pin_Header_Straight_1x02_Pitch2.00mm" H 1950 3600 50  0001 C CNN
F 3 "" H 1950 3600 50  0001 C CNN
	1    1950 3600
	-1   0    0    -1  
$EndComp
$Comp
L GND #PWR01
U 1 1 5A511B60
P 2400 2950
F 0 "#PWR01" H 2400 2700 50  0001 C CNN
F 1 "GND" H 2400 2800 50  0000 C CNN
F 2 "" H 2400 2950 50  0001 C CNN
F 3 "" H 2400 2950 50  0001 C CNN
	1    2400 2950
	1    0    0    -1  
$EndComp
Wire Wire Line
	2400 1800 2400 2950
Wire Wire Line
	2150 2400 2400 2400
Connection ~ 2400 2400
$Comp
L GND #PWR02
U 1 1 5A511FCB
P 2350 3700
F 0 "#PWR02" H 2350 3450 50  0001 C CNN
F 1 "GND" H 2350 3550 50  0000 C CNN
F 2 "" H 2350 3700 50  0001 C CNN
F 3 "" H 2350 3700 50  0001 C CNN
	1    2350 3700
	1    0    0    -1  
$EndComp
Wire Wire Line
	2150 3650 2350 3650
Wire Wire Line
	2350 3650 2350 3700
$Comp
L Crystal_Small Y1
U 1 1 5A513374
P 8950 2150
F 0 "Y1" H 8950 2250 28  0000 C CNN
F 1 "16MHz" H 8950 2050 28  0000 C CNN
F 2 "Crystals:Crystal_HC49-U_Vertical" H 8950 2150 50  0001 C CNN
F 3 "" H 8950 2150 50  0001 C CNN
	1    8950 2150
	0    1    1    0   
$EndComp
$Comp
L ATMEGA328P-PU U2
U 1 1 5A51357F
P 7650 2600
F 0 "U2" H 6900 3850 50  0000 L BNN
F 1 "ATMEGA328P-PU" H 8050 1200 50  0000 L BNN
F 2 "Housings_DIP:DIP-28_W7.62mm_LongPads" H 7650 2600 50  0001 C CIN
F 3 "" H 7650 2600 50  0001 C CNN
	1    7650 2600
	1    0    0    -1  
$EndComp
Wire Wire Line
	8650 2200 8750 2200
Wire Wire Line
	8750 2200 8750 2300
Wire Wire Line
	8750 2300 9100 2300
Wire Wire Line
	8950 2300 8950 2250
Wire Wire Line
	8650 2100 8750 2100
Wire Wire Line
	8750 2100 8750 2000
Wire Wire Line
	8750 2000 9100 2000
Wire Wire Line
	8950 2000 8950 2050
$Comp
L C_Small C3
U 1 1 5A513F70
P 9200 2000
F 0 "C3" H 9210 2070 50  0000 L CNN
F 1 "22p" H 9210 1920 50  0000 L CNN
F 2 "Capacitors_THT:C_Disc_D3.0mm_W2.0mm_P2.50mm" H 9200 2000 50  0001 C CNN
F 3 "" H 9200 2000 50  0001 C CNN
	1    9200 2000
	0    1    1    0   
$EndComp
$Comp
L C_Small C4
U 1 1 5A514126
P 9200 2300
F 0 "C4" H 9210 2370 50  0000 L CNN
F 1 "22p" H 9210 2220 50  0000 L CNN
F 2 "Capacitors_THT:C_Disc_D3.0mm_W2.0mm_P2.50mm" H 9200 2300 50  0001 C CNN
F 3 "" H 9200 2300 50  0001 C CNN
	1    9200 2300
	0    1    1    0   
$EndComp
Connection ~ 8950 2300
Connection ~ 8950 2000
Wire Wire Line
	9300 2000 9400 2000
Wire Wire Line
	9400 2000 9400 2300
Wire Wire Line
	9400 2300 9300 2300
$Comp
L GND #PWR03
U 1 1 5A514793
P 9400 2300
F 0 "#PWR03" H 9400 2050 50  0001 C CNN
F 1 "GND" H 9400 2150 50  0000 C CNN
F 2 "" H 9400 2300 50  0001 C CNN
F 3 "" H 9400 2300 50  0001 C CNN
	1    9400 2300
	1    0    0    -1  
$EndComp
Wire Wire Line
	6750 3700 6700 3700
Wire Wire Line
	6700 3700 6700 3800
Wire Wire Line
	6700 3800 6750 3800
$Comp
L GND #PWR04
U 1 1 5A515120
P 6700 3800
F 0 "#PWR04" H 6700 3550 50  0001 C CNN
F 1 "GND" H 6700 3650 50  0000 C CNN
F 2 "" H 6700 3800 50  0001 C CNN
F 3 "" H 6700 3800 50  0001 C CNN
	1    6700 3800
	1    0    0    -1  
$EndComp
$Comp
L C_Small C1
U 1 1 5A51593E
P 6300 2000
F 0 "C1" H 6310 2070 50  0000 L CNN
F 1 "0.1u" H 6310 1920 50  0000 L CNN
F 2 "Capacitors_THT:C_Disc_D4.3mm_W1.9mm_P5.00mm" H 6300 2000 50  0001 C CNN
F 3 "" H 6300 2000 50  0001 C CNN
	1    6300 2000
	1    0    0    -1  
$EndComp
Wire Wire Line
	6750 1800 6300 1800
Wire Wire Line
	6300 1500 6300 1900
Wire Wire Line
	6750 1500 6300 1500
Connection ~ 6300 1800
$Comp
L GND #PWR05
U 1 1 5A515EBB
P 6300 2100
F 0 "#PWR05" H 6300 1850 50  0001 C CNN
F 1 "GND" H 6300 1950 50  0000 C CNN
F 2 "" H 6300 2100 50  0001 C CNN
F 3 "" H 6300 2100 50  0001 C CNN
	1    6300 2100
	1    0    0    -1  
$EndComp
$Comp
L VCC #PWR06
U 1 1 5A516166
P 6300 1500
F 0 "#PWR06" H 6300 1350 50  0001 C CNN
F 1 "VCC" H 6300 1650 50  0000 C CNN
F 2 "" H 6300 1500 50  0001 C CNN
F 3 "" H 6300 1500 50  0001 C CNN
	1    6300 1500
	1    0    0    -1  
$EndComp
$Comp
L CONN_01X05 J5
U 1 1 5A5171FE
P 8500 5100
F 0 "J5" H 8500 5400 50  0000 C CNN
F 1 "PROGRAMMING" V 8600 5100 28  0000 C CNN
F 2 "Pin_Headers:Pin_Header_Straight_1x05_Pitch2.00mm" H 8500 5100 50  0001 C CNN
F 3 "" H 8500 5100 50  0001 C CNN
	1    8500 5100
	1    0    0    -1  
$EndComp
$Comp
L VCC #PWR07
U 1 1 5A517AC3
P 8200 4600
F 0 "#PWR07" H 8200 4450 50  0001 C CNN
F 1 "VCC" H 8200 4750 50  0000 C CNN
F 2 "" H 8200 4600 50  0001 C CNN
F 3 "" H 8200 4600 50  0001 C CNN
	1    8200 4600
	1    0    0    -1  
$EndComp
$Comp
L GND #PWR08
U 1 1 5A517C9F
P 8150 5350
F 0 "#PWR08" H 8150 5100 50  0001 C CNN
F 1 "GND" H 8150 5200 50  0000 C CNN
F 2 "" H 8150 5350 50  0001 C CNN
F 3 "" H 8150 5350 50  0001 C CNN
	1    8150 5350
	1    0    0    -1  
$EndComp
Wire Wire Line
	8300 5300 8150 5300
Wire Wire Line
	8150 5300 8150 5350
Wire Wire Line
	8200 4900 8300 4900
Wire Wire Line
	8200 4600 8200 4900
Wire Wire Line
	7850 5000 8300 5000
$Comp
L R_Small R3
U 1 1 5A51839C
P 7950 4800
F 0 "R3" H 7980 4820 50  0000 L CNN
F 1 "10K" H 7980 4760 28  0000 L CNN
F 2 "Resistors_THT:R_Axial_DIN0204_L3.6mm_D1.6mm_P7.62mm_Horizontal" H 7950 4800 50  0001 C CNN
F 3 "" H 7950 4800 50  0001 C CNN
	1    7950 4800
	1    0    0    -1  
$EndComp
Wire Wire Line
	7950 4900 7950 5000
Connection ~ 7950 5000
Wire Wire Line
	7950 4700 7950 4650
Wire Wire Line
	7950 4650 8200 4650
Connection ~ 8200 4650
Wire Wire Line
	8300 5100 8200 5100
Wire Wire Line
	8300 5200 8200 5200
Text Label 7850 5000 2    28   ~ 0
RESET
Text Label 8200 5100 2    28   ~ 0
TX
Text Label 8200 5200 2    28   ~ 0
RX
Text Label 8650 3100 0    28   ~ 0
TX
Text Label 8650 3200 0    28   ~ 0
RX
Text Label 8650 2750 0    28   ~ 0
SDA
Text Label 8650 2850 0    28   ~ 0
SCL
Text Label 8650 3300 0    28   ~ 0
D2
Text Label 8650 1600 0    28   ~ 0
SERVO_1
Text Label 8650 1700 0    28   ~ 0
SERVO_2
Text Label 8650 1800 0    28   ~ 0
SERVO_3
Text Label 2150 3550 0    60   ~ 0
6V
Text Label 2300 2200 0    60   ~ 0
SERVO_2
Text Label 2300 1600 0    60   ~ 0
SERVO_1
Text Label 2300 2750 0    60   ~ 0
SERVO_3
$Comp
L CONN_061.27MM J6
U 1 1 5B1930A7
P 4200 2100
F 0 "J6" H 4000 2700 45  0000 L BNN
F 1 "MPU6050" H 4000 1950 45  0000 L BNN
F 2 "Connectors:1X06" H 4200 2800 20  0001 C CNN
F 3 "" H 4200 2100 50  0001 C CNN
F 4 "XXX-00000" H 4200 2850 60  0000 C CNN "Field4"
	1    4200 2100
	1    0    0    -1  
$EndComp
$Comp
L VCC #PWR09
U 1 1 5B193274
P 4550 2100
F 0 "#PWR09" H 4550 1950 50  0001 C CNN
F 1 "VCC" H 4550 2250 50  0000 C CNN
F 2 "" H 4550 2100 50  0001 C CNN
F 3 "" H 4550 2100 50  0001 C CNN
	1    4550 2100
	0    1    1    0   
$EndComp
$Comp
L GND #PWR010
U 1 1 5B19339D
P 4550 2000
F 0 "#PWR010" H 4550 1750 50  0001 C CNN
F 1 "GND" H 4550 1850 50  0000 C CNN
F 2 "" H 4550 2000 50  0001 C CNN
F 3 "" H 4550 2000 50  0001 C CNN
	1    4550 2000
	0    -1   -1   0   
$EndComp
Text Label 4300 1900 0    60   ~ 0
SCL
Text Label 4300 1800 0    60   ~ 0
SDA
Text Label 4300 1600 0    60   ~ 0
D2
Wire Wire Line
	4300 2000 4550 2000
Wire Wire Line
	4300 2100 4550 2100
Text Label 8650 2950 0    28   ~ 0
RESET
$Comp
L LM317T U1
U 1 1 5B1CE281
P 4750 3600
F 0 "U1" H 4550 3800 50  0000 C CNN
F 1 "LM317T" H 4750 3800 50  0000 L CNN
F 2 "TO_SOT_Packages_THT:TO-220_Vertical" H 4750 3700 50  0001 C CIN
F 3 "" H 4750 3600 50  0001 C CNN
	1    4750 3600
	1    0    0    -1  
$EndComp
Wire Wire Line
	2950 3550 4350 3550
$Comp
L VCC #PWR011
U 1 1 5B1CE725
P 5750 3550
F 0 "#PWR011" H 5750 3400 50  0001 C CNN
F 1 "VCC" H 5750 3700 50  0000 C CNN
F 2 "" H 5750 3550 50  0001 C CNN
F 3 "" H 5750 3550 50  0001 C CNN
	1    5750 3550
	0    1    1    0   
$EndComp
$Comp
L GND #PWR012
U 1 1 5B1CEA86
P 4900 4550
F 0 "#PWR012" H 4900 4300 50  0001 C CNN
F 1 "GND" H 4900 4400 50  0000 C CNN
F 2 "" H 4900 4550 50  0001 C CNN
F 3 "" H 4900 4550 50  0001 C CNN
	1    4900 4550
	1    0    0    -1  
$EndComp
$Comp
L C C2
U 1 1 5B1CEAB4
P 4250 3950
F 0 "C2" H 4275 4050 50  0000 L CNN
F 1 "0.1uF" H 4275 3850 50  0000 L CNN
F 2 "Capacitors_THT:C_Disc_D5.0mm_W2.5mm_P5.00mm" H 4288 3800 50  0001 C CNN
F 3 "" H 4250 3950 50  0001 C CNN
	1    4250 3950
	1    0    0    -1  
$EndComp
Wire Wire Line
	4250 3800 4250 3550
Connection ~ 4250 3550
$Comp
L C C5
U 1 1 5B1CEE62
P 5600 3950
F 0 "C5" H 5625 4050 50  0000 L CNN
F 1 "10uF" H 5625 3850 50  0000 L CNN
F 2 "Capacitors_THT:CP_Radial_D4.0mm_P2.00mm" H 5638 3800 50  0001 C CNN
F 3 "" H 5600 3950 50  0001 C CNN
	1    5600 3950
	1    0    0    -1  
$EndComp
Wire Wire Line
	5600 4450 5600 4100
$Comp
L R R2
U 1 1 5B1CFACF
P 5100 4050
F 0 "R2" V 5180 4050 50  0000 C CNN
F 1 "220" V 5100 4050 50  0000 C CNN
F 2 "Resistors_THT:R_Axial_DIN0204_L3.6mm_D1.6mm_P7.62mm_Horizontal" V 5030 4050 50  0001 C CNN
F 3 "" H 5100 4050 50  0001 C CNN
	1    5100 4050
	0    1    1    0   
$EndComp
Wire Wire Line
	5150 3550 5750 3550
Wire Wire Line
	5350 3550 5350 4050
Connection ~ 5350 3550
Wire Wire Line
	5600 3800 5600 3550
Connection ~ 5600 3550
$Comp
L R R1
U 1 1 5B1CFC14
P 4750 4250
F 0 "R1" V 4830 4250 50  0000 C CNN
F 1 "700" V 4750 4250 50  0000 C CNN
F 2 "Resistors_THT:R_Axial_DIN0204_L3.6mm_D1.6mm_P7.62mm_Horizontal" V 4680 4250 50  0001 C CNN
F 3 "" H 4750 4250 50  0001 C CNN
	1    4750 4250
	-1   0    0    1   
$EndComp
Wire Wire Line
	4750 3850 4750 4100
Wire Wire Line
	4950 4050 4750 4050
Connection ~ 4750 4050
Wire Wire Line
	5350 4050 5250 4050
Wire Wire Line
	4250 4450 5600 4450
Wire Wire Line
	4750 4450 4750 4400
Connection ~ 4750 4450
Wire Wire Line
	4250 4450 4250 4100
Wire Wire Line
	4900 4550 4900 4450
Connection ~ 4900 4450
Wire Wire Line
	2150 3550 2850 3550
$Comp
L CONN_01X02 J7
U 1 1 5B1D5FA7
P 2900 3250
F 0 "J7" H 2900 3400 50  0000 C CNN
F 1 "CONN_01X02" V 3000 3250 50  0000 C CNN
F 2 "Connectors:1X02" H 2900 3250 50  0001 C CNN
F 3 "" H 2900 3250 50  0001 C CNN
	1    2900 3250
	0    -1   -1   0   
$EndComp
Wire Wire Line
	2850 3550 2850 3450
Wire Wire Line
	2950 3450 2950 3550
$EndSCHEMATC
