(module MPU6050 (layer F.Cu) (tedit 5B1598BF)
  (fp_text reference REF** (at 2.54 1.27) (layer F.SilkS)
    (effects (font (size 1 1) (thickness 0.15)))
  )
  (fp_text value MPU6050 (at 3.81 -10.16 90) (layer F.Fab)
    (effects (font (size 1 1) (thickness 0.15)))
  )
  (fp_line (start 5.08 0) (end 0 0) (layer F.SilkS) (width 0.15))
  (fp_line (start 5.08 -20.32) (end 5.08 0) (layer F.SilkS) (width 0.15))
  (fp_line (start 0 -20.32) (end 5.08 -20.32) (layer F.SilkS) (width 0.15))
  (fp_line (start 0 -16.51) (end 0 -20.32) (layer F.SilkS) (width 0.15))
  (fp_line (start 0 -16.51) (end 0 0) (layer F.SilkS) (width 0.15))
  (pad VCC thru_hole circle (at 1.27 -1.27) (size 1.524 1.524) (drill 0.762) (layers *.Cu *.Mask))
  (pad GND thru_hole circle (at 1.27 -3.81) (size 1.524 1.524) (drill 0.762) (layers *.Cu *.Mask))
  (pad SCL thru_hole circle (at 1.27 -6.35) (size 1.524 1.524) (drill 0.762) (layers *.Cu *.Mask))
  (pad SDA thru_hole circle (at 1.27 -8.89) (size 1.524 1.524) (drill 0.762) (layers *.Cu *.Mask))
  (pad XDA thru_hole circle (at 1.27 -11.43) (size 1.524 1.524) (drill 0.762) (layers *.Cu *.Mask))
  (pad XCL thru_hole circle (at 1.27 -13.97) (size 1.524 1.524) (drill 0.762) (layers *.Cu *.Mask))
  (pad AD0 thru_hole circle (at 1.27 -16.51) (size 1.524 1.524) (drill 0.762) (layers *.Cu *.Mask))
  (pad INT thru_hole circle (at 1.27 -19.05) (size 1.524 1.524) (drill 0.762) (layers *.Cu *.Mask))
)
